…
most_common_locations <- places %>% 
  filter(!is.na(loc)) %>%
  filter(str_starts(loc, "[:upper:]")) %>%
  filter(loc != "Polygon") %>% # For some reason, crypto enthusiasts are saying Polygon is their location
  group_by(loc) %>%
  summarise(n = n()) %>%
  arrange(desc(n))

most_common_locations
```

    ## # A tibble: 363 × 2
    ##    loc                  n
    ##    <chr>            <int>
    ##  1 United States      103
    ##  2 US                  97
    ##  3 GB                  50
    ##  4 United Kingdom      50
    ##  5 IE                  15
    ##  6 India               15
    ##  7 Ireland             15
    ##  8 IN                  11
    ##  9 Wexford             11
    ## 10 Wexford, Ireland    11
    ## # … with 353 more rows
…
